<svg xmlns="http://www.w3.org/2000/svg" viewBox="0 0 512 512">
  <path fill="#ff5722" d="M32 0l41 461 183 51 183-51L480 0z"/>
  <path fill="#fafafa" d="M392 151H177l5 58h204l-15 173-115 32-115-32-8-91h56l4 47 63 17 63-17 6-73H131L115 94h282z"/>
</svg>
